…
    ## $names
    ## [1] "labels"                 "nClusters"             
    ## [3] "coord_centroids"        "cluster_distances"     
    ## [5] "gene_cluster_distances" "closest_cluster"       
    ## [7] "plot1"                  "plot2"                 
    ## 
    ## $class
    ## [1] "Cluster_Object"

    #Finding Clustering Results
    your_analysis$cluster$labels

    ## # A tibble: 35 x 2
    ##                  Sample  Cluster
    ##                   <chr>    <chr>
    ##  1   HFF_PD22_Rotenone1 Cluster2
    ##  2   HFF_PD22_Rotenone2 Cluster2
    ##  3   HFF_PD22_Rotenone3 Cluster2
    ##  4 HFF_PD22_woRotenone1 Cluster2
    ##  5 HFF_PD22_woRotenone2 Cluster2
    ##  6 HFF_PD22_woRotenone3 Cluster2
    ##  7   HFF_PD26_Rotenone1 Cluster6
    ##  8   HFF_PD26_Rotenone2 Cluster6
    ##  9   HFF_PD26_Rotenone3 Cluster6
    ## 10 HFF_PD26_woRotenone1 Cluster4
    ## # ... with 25 more rows
…
